intento1_limpieza_con_sku
…
###2. Transformacin de variables

Paso 1: Eliminar caracteres que pudieran haber prevalecido a lo largo de este proceso en la columna de plan tarifario, por ejemplo: comas.

ventas_con_ubicacion_limpio<- a
#ventas_con_ubicacion_limpio$plan_tarifario<-gsub("[[:punct:]]", "", ventas_con_ubicacion_limpio$plan_tarifario)

Paso 2: Calcular el costo promedio de los productos

costo_promedio <- ventas_con_ubicacion_limpio[,c(2,4)]%>%group_by(sku_por_equipo)%>%summarise(costo_promedio = mean(costo))
costo_promedio <- costo_promedio %>%arrange(sku_por_equipo)
costo_promedio

## # A tibble: 455 x 2
##    sku_por_equipo costo_promedio
##    <chr>                   <dbl>
##  1 N.6045I                  994.
##  2 N.6045ID                 932.
##  3 N.7P128RJ              16140 
##  4 N.A475B                 1284.
##  5 N.A5054SD                617.
##  6 N.A5098OD               1241.
##  7 N.A5098ON               1411.
##  8 N.AA3PLNG               1578.
##  9 N.AIXR128A             15777.
## 10 N.AIXR128AZ            15955.
## #  with 445 more rows
…
## # A tibble: 4 x 1
## # Groups:   gamma_de_acuerdo_a_costo [4]
##   gamma_de_acuerdo_a_costo
##   <chr>                   
## 1 baja                    
## 2 media                   
## 3 premium                 
## 4 alta

#which(is.na(ventas_con_ubicacion_limpio$gamma_de_acuerdo_a_costo)) #Todos ya tienen registrado una gamma 

#hay 455 productos con una gamma particular 
ventas_con_ubicacion_limpio[,c(2,15)]%>%unique()

## # A tibble: 455 x 2
##    sku_por_equipo gamma_de_acuerdo_a_costo
##    <chr>          <chr>                   
##  1 N.HUM10LN      baja                    
##  2 N.MZ2PLYG      baja                    
##  3 N.ZV8MNG       baja                    
##  4 N.HUAP20N      media                   
##  5 N.HUY9FLAZ     baja                    
##  6 N.HUY9FLADR    baja                    
##  7 N.MOTOCNG      baja                    
##  8 N.MOG6PYI      baja                    
##  9 N.HUM10LA      baja                    
## 10 N.MOTOEAZ      baja                    
## #  with 445 more rows
…
#write.csv(datos_ventas_ubicacion_gamma_familia, "DATOS_SEMI_COMPLETOS.csv", row.names = FALSE)

consideramos sku apartir de aqui 932,963 en lugar de 700 y algo _______________________________________________________________________

#Calcular ventas por totales 932,963 en vez d 1048575
DATOS_LIMPIOS <- datos_ventas_ubicacion_gamma_familia%>% 
  group_by(punto_de_venta, fecha, mes, anio, sku, marca, gamma, zona, estado, ciudad, latitud, longitud)%>%summarise(ventas_diarias = sum(num_ventas)) #se aadio mes y a{io y sku en comparacion con el archivo anteior}

DATOS_LIMPIOS

## # A tibble: 932,963 x 13
## # Groups:   punto_de_venta, fecha, mes, anio, sku, marca, gamma, zona,
## #   estado, ciudad, latitud [932,963]
##    punto_de_venta fecha        mes  anio sku   marca gamma zona  estado
##    <chr>          <date>     <dbl> <dbl> <chr> <chr> <chr> <chr> <chr> 
##  1 1 poniente     2018-06-01     6  2018 N.HU huaw baja  cent puebla
##  2 1 poniente     2018-06-01     6  2018 N.MZ moto baja  cent puebla
##  3 1 poniente     2018-06-01     6  2018 N.ZV zte   baja  cent puebla
##  4 1 poniente     2018-06-02     6  2018 N.HU huaw media cent puebla
##  5 1 poniente     2018-06-02     6  2018 N.HU huaw baja  cent puebla
##  6 1 poniente     2018-06-04     6  2018 N.HU huaw baja  cent puebla
##  7 1 poniente     2018-06-04     6  2018 N.MO moto baja  cent puebla
##  8 1 poniente     2018-06-04     6  2018 N.ZV zte   baja  cent puebla
##  9 1 poniente     2018-06-05     6  2018 N.HU huaw baja  cent puebla
## 10 1 poniente     2018-06-05     6  2018 N.MO moto baja  cent puebla
## #  with 932,953 more rows, and 4 more variables: ciudad <chr>,
## #   latitud <dbl>, longitud <dbl>, ventas_diarias <dbl>
…
Paso 2: Juntas IDs con datos

#juntas columnas con id en los datos 710,011 cambio a 932,963 cnsiderando sku y no plan tarifario
datos <- left_join(datos, shopID, by="punto_de_venta")
datos <- left_join(datos, marcaID, by="marca")
datos <- left_join(datos, gammaID, by="gamma")
datos <- left_join(datos, skuID, by="sku")
datos <- left_join(datos, fechaID, by="mes")
datos

## # A tibble: 932,963 x 18
##    punto_de_venta fecha        mes  anio sku   marca gamma zona  estado
##    <chr>          <date>     <dbl> <dbl> <chr> <chr> <chr> <chr> <chr> 
##  1 1 poniente     2018-06-01     6  2018 N.HU huaw baja  cent puebla
##  2 1 poniente     2018-06-01     6  2018 N.MZ moto baja  cent puebla
##  3 1 poniente     2018-06-01     6  2018 N.ZV zte   baja  cent puebla
##  4 1 poniente     2018-06-02     6  2018 N.HU huaw media cent puebla
##  5 1 poniente     2018-06-02     6  2018 N.HU huaw baja  cent puebla
##  6 1 poniente     2018-06-04     6  2018 N.HU huaw baja  cent puebla
##  7 1 poniente     2018-06-04     6  2018 N.MO moto baja  cent puebla
##  8 1 poniente     2018-06-04     6  2018 N.ZV zte   baja  cent puebla
##  9 1 poniente     2018-06-05     6  2018 N.HU huaw baja  cent puebla
## 10 1 poniente     2018-06-05     6  2018 N.MO moto baja  cent puebla
## #  with 932,953 more rows, and 9 more variables: ciudad <chr>,
## #   latitud <dbl>, longitud <dbl>, ventas_diarias <dbl>, tiendaID <chr>,
## #   marcaID <chr>, gammaID <chr>, skuID <chr>, fechaID <chr>
…
